…
### Municipios de México (formato SHP)
```r
> cities_shp
Simple feature collection with 2458 features and 5 fields
geometry type:  MULTIPOLYGON
dimension:      XY
bbox:           xmin: -118.3651 ymin: 14.5321 xmax: -86.72224 ymax: 32.71865
CRS:            +proj=longlat +ellps=WGS84 +datum=WGS84
# A tibble: 2,458 x 6
   CVE_ENT CVE_MUN NOM_MUN      LONGITUDE LATITUDE                                      geometry
     <dbl>   <dbl> <fct>            <dbl>    <dbl>                            <MULTIPOLYGON [°]>
 1       1       1 Aguascalien…     -102.     21.8 (((-102.3239 21.93653, -102.3229 21.93665, -…
 2       1       2 Asientos         -102.     22.1 (((-101.9994 22.21951, -102.001 22.16811, -1…
 3       1       3 Calvillo         -103.     21.9 (((-102.5763 21.96778, -102.5844 21.95277, -…
 4       1       4 Cosío            -102.     22.4 (((-102.2532 22.37449, -102.2533 22.37046, -…
 5       1       5 Jesús María      -102.     21.9 (((-102.3239 21.93653, -102.3243 21.93627, -…
 6       1       6 Pabellón de…     -102.     22.1 (((-102.3103 22.03716, -102.3194 22.04042, -…
 7       1       7 Rincón de R…     -102.     22.3 (((-102.189 22.36244, -102.1941 22.35064, -1…
 8       1       8 San José de…     -103.     22.1 (((-102.3538 22.12064, -102.3543 22.11699, -…
 9       1       9 Tepezalá         -102.     22.2 (((-102.1621 22.34851, -102.1498 22.34718, -…
10       1      10 El Llano         -102.     21.9 (((-101.8978 21.95839, -101.8904 21.95095, -…
# … with 2,448 more rows
```
…
